%YAML 1.1
%TAG !u! tag:unity3d.com,2011:
--- !u!74 &7400000
AnimationClip:
  m_ObjectHideFlags: 0
  m_PrefabParentObject: {fileID: 0}
  m_PrefabInternal: {fileID: 0}
  m_Name: Walk
  serializedVersion: 6
  m_Legacy: 0
  m_Compressed: 0
  m_UseHighQualityCurve: 1
  m_RotationCurves: []
  m_CompressedRotationCurves: []
  m_EulerCurves: []
  m_PositionCurves: []
  m_ScaleCurves: []
  m_FloatCurves: []
  m_PPtrCurves:
  - curve:
    - time: 0
      value: {fileID: 21300000, guid: 1845663c14d587747922e692978f4bf8, type: 3}
    - time: 0.083333336
      value: {fileID: 21300000, guid: 46cc5d836ae3a384aae26e7fcccea2fd, type: 3}
    - time: 0.16666667
      value: {fileID: 21300000, guid: e7b3af022c6faae498f447066caf280f, type: 3}
    - time: 0.25
      value: {fileID: 21300000, guid: e3940bd55b365644dbeaec26a39e34ea, type: 3}
    - time: 0.33333334
      value: {fileID: 21300000, guid: 28c03ea319fec8947aa145f5631f3670, type: 3}
    - time: 0.41666666
      value: {fileID: 21300000, guid: 334fb95896855a24ca48195a92d5d480, type: 3}
    - time: 0.5
      value: {fileID: 21300000, guid: bb045c16725b4c74e9eabe6fe3eb1020, type: 3}
    - time: 0.5833333
      value: {fileID: 21300000, guid: 6f776a4f71273444296c1cbe6ceb53e0, type: 3}
    - time: 0.6666667
      value: {fileID: 21300000, guid: 875af2b455a5b0d4bbea5a0343455acb, type: 3}
    - time: 0.75
      value: {fileID: 21300000, guid: a817c371c0295b240be4cd88fa031c31, type: 3}
    - time: 0.8333333
      value: {fileID: 21300000, guid: 402f14ea713a6d342940729dfb53fb96, type: 3}
    - time: 0.9166667
      value: {fileID: 21300000, guid: b8794bc312f5a784c8c1e169faa99a1d, type: 3}
    attribute: m_Sprite
    path: 
    classID: 212
    script: {fileID: 0}
  m_SampleRate: 12
  m_WrapMode: 0
  m_Bounds:
    m_Center: {x: 0, y: 0, z: 0}
    m_Extent: {x: 0, y: 0, z: 0}
  m_ClipBindingConstant:
    genericBindings:
    - serializedVersion: 2
      path: 0
      attribute: 0
      script: {fileID: 0}
      typeID: 212
      customType: 23
      isPPtrCurve: 1
    pptrCurveMapping:
    - {fileID: 21300000, guid: 1845663c14d587747922e692978f4bf8, type: 3}
    - {fileID: 21300000, guid: 46cc5d836ae3a384aae26e7fcccea2fd, type: 3}
    - {fileID: 21300000, guid: e7b3af022c6faae498f447066caf280f, type: 3}
    - {fileID: 21300000, guid: e3940bd55b365644dbeaec26a39e34ea, type: 3}
    - {fileID: 21300000, guid: 28c03ea319fec8947aa145f5631f3670, type: 3}
    - {fileID: 21300000, guid: 334fb95896855a24ca48195a92d5d480, type: 3}
    - {fileID: 21300000, guid: bb045c16725b4c74e9eabe6fe3eb1020, type: 3}
    - {fileID: 21300000, guid: 6f776a4f71273444296c1cbe6ceb53e0, type: 3}
    - {fileID: 21300000, guid: 875af2b455a5b0d4bbea5a0343455acb, type: 3}
    - {fileID: 21300000, guid: a817c371c0295b240be4cd88fa031c31, type: 3}
    - {fileID: 21300000, guid: 402f14ea713a6d342940729dfb53fb96, type: 3}
    - {fileID: 21300000, guid: b8794bc312f5a784c8c1e169faa99a1d, type: 3}
  m_AnimationClipSettings:
    serializedVersion: 2
    m_AdditiveReferencePoseClip: {fileID: 0}
    m_AdditiveReferencePoseTime: 0
    m_StartTime: 0
    m_StopTime: 1
    m_OrientationOffsetY: 0
    m_Level: 0
    m_CycleOffset: 0
    m_HasAdditiveReferencePose: 0
    m_LoopTime: 1
    m_LoopBlend: 0
    m_LoopBlendOrientation: 0
    m_LoopBlendPositionY: 0
    m_LoopBlendPositionXZ: 0
    m_KeepOriginalOrientation: 0
    m_KeepOriginalPositionY: 1
    m_KeepOriginalPositionXZ: 0
    m_HeightFromFeet: 0
    m_Mirror: 0
  m_EditorCurves: []
  m_EulerEditorCurves: []
  m_HasGenericRootTransform: 0
  m_HasMotionFloatCurves: 0
  m_GenerateMotionCurves: 0
  m_Events: []
